[
  {
    "sellername": "The Travel Managers",
    "sellerphone": "9831491734",
    "selleremail": "ttmkolkata@gmail.com\n",
    "selleraddress": "14C Radhanath Chowdhury Road, Kolkata, 700015",
    "isBusiness": "true"
  },
  {
    "sellername": "Pi-lo",
    "sellerphone": "9910944662",
    "selleremail": "info@pi-lo.in",
    "selleraddress": "G-35, Sector 6, Noida, UP 201301",
    "isBusiness": "true"
  },
  {
    "sellername": "Akriti",
    "sellerphone": "9849193447",
    "selleremail": "nil",
    "selleraddress": "Kolkata",
    "isBusiness": "true"
  },
  {
    "sellername": "Joja Surgicals",
    "sellerphone": "9830015361",
    "selleremail": "nil",
    "selleraddress": "Kolkata",
    "isBusiness": "true"
  },
  {
    "sellername": "Ansell Gloves",
    "sellerphone": "9831176714",
    "selleremail": "nil",
    "selleraddress": "Kolkata",
    "isBusiness": "true"
  },
  {
    "sellername": "Sohan Eye Care",
    "sellerphone": "9831754444",
    "selleremail": "nil",
    "selleraddress": "Kolkata",
    "isBusiness": "true"
  },
  {
    "sellername": "Chirag Co",
    "sellerphone": "8584045492",
    "selleremail": "nil",
    "selleraddress": "Kolkata",
    "isBusiness": "true"
  },
  {
    "sellername": "GB Pharma",
    "sellerphone": "9748483013",
    "selleremail": "nil",
    "selleraddress": "Kolkata",
    "isBusiness": "true"
  },
  {
    "sellername": "Clubb International Pvt Ltd",
    "sellerphone": "9830387137",
    "selleremail": "nil",
    "selleraddress": "Kolkata",
    "isBusiness": "true"
  },
  {
    "sellername": "HiCare",
    "sellerphone": "3323978617",
    "selleremail": "nil",
    "selleraddress": "Kolkata",
    "isBusiness": "true"
  },
  {
    "sellername": "Ramesh Dyeing",
    "sellerphone": "86000-00036",
    "selleremail": "nil",
    "selleraddress": "Pune",
    "isBusiness": "true"
  },
  {
    "sellername": "IIT Jammu",
    "sellerphone": "8090377917",
    "selleremail": "nil",
    "selleraddress": "Jammu",
    "isBusiness": "true"
  },
  {
    "sellername": "Saral Designs",
    "sellerphone": "\n90293 30401",
    "selleremail": "contactus@saraldesigns.in",
    "selleraddress": "EL-11, T.T.C. Industrial Area, MIDC Mahape, Navi Mumbai, Maharashtra 400710",
    "isBusiness": "true"
  },
  {
    "sellername": "Maker's Asylum",
    "sellerphone": "\n090046 86828",
    "selleremail": "info@makersasylum.com",
    "selleraddress": "Plot D6, Rd Number 20, Marol MIDC Industry Estate, Andheri East, Mumbai, Maharashtra 400090",
    "isBusiness": "true"
  },
  {
    "sellername": "Karam",
    "sellerphone": "0120 4734400",
    "selleremail": "karam@karam.in",
    "selleraddress": "D-95, Sector \u2013 2,\nNoida \u2013 201301\nDelhi NCR, India",
    "isBusiness": "true"
  },
  {
    "sellername": "Maker's Asylum",
    "sellerphone": "\n090046 86828",
    "selleremail": "info@makersasylum.com",
    "selleraddress": "268G, Hauz Rani, Malviya Nagar, New Delhi, Delhi 110017",
    "isBusiness": "true"
  },
  {
    "sellername": "Burhani Industrial Suppliers",
    "sellerphone": "9739296382\n",
    "selleremail": "Chittalia@gmail.com\nhussainchittalia@yahoo.in ",
    "selleraddress": "#19 & 20, \" Belagodu Arcade\", V.R.N Lane, S.P Road, Bangalore -560002,,",
    "isBusiness": "true"
  },
  {
    "sellername": "TNS Safety Pvt Ltd",
    "sellerphone": "93421 18938\n\n\n",
    "selleremail": "safetytnsindia@gmail.com",
    "selleraddress": "Head Office:\n#3, KET Building,\nopp. Kengeri Police Station,\nMysore Road,\nKengeri,\nBangalore \u2013 560 060",
    "isBusiness": "true"
  },
  {
    "sellername": "Mallcom",
    "sellerphone": "91 33 4016 1000",
    "selleremail": "sales@mallcom.in",
    "selleraddress": "EN-12, Sector-V, Salt Lake Kolkata 700 091",
    "isBusiness": "true"
  },
  {
    "sellername": "IIT Roorkee",
    "sellerphone": "91 1332 285677",
    "selleremail": "naveen.navani@bt.iitr.ac.in",
    "selleraddress": "IIT Roorkee, Roorkee - Haridwar Highway, Roorkee, Uttarakhand 247667",
    "isBusiness": "true"
  },
  {
    "sellername": "IIT Dharwad",
    "sellerphone": "",
    "selleremail": "somashekara@iitdh.ac.in",
    "selleraddress": "Indian Institute of Technology Dharwad\nWALMI Campus, Belur Industrial Area, Anjaneya Nagar, Karnataka 58001",
    "isBusiness": "true"
  },
  {
    "sellername": "Crea India",
    "sellerphone": "",
    "selleremail": "contact@creaworldwide.com",
    "selleraddress": "Crea Marketing Services Pvt. Ltd.\n\nA- 744 2nd Floor, Sushant Lok \n\nPhase 1, Gurgaon : 122002\n\nIndia",
    "isBusiness": "true"
  },
  {
    "sellername": "JP Safety",
    "sellerphone": "918100210916",
    "selleremail": "Jpsafety39@gmail.com",
    "selleraddress": "1/1 G, Ramkrishna Samadhi Road,, Kolkata, West Bengal - 700054, India",
    "isBusiness": "true"
  },
  {
    "sellername": "Green Packaging House",
    "sellerphone": "8042963386",
    "selleremail": "",
    "selleraddress": "132, Cotton St, Opp. PNB ATM, Raja Katra, Bara Bazar, Jorasanko, Kolkata, West Bengal 700007",
    "isBusiness": "true"
  },
  {
    "sellername": "Upasana",
    "sellerphone": "91 9442982957",
    "selleremail": "guestcare@upasana.in",
    "selleraddress": "Auroshilpam, Auroville (Near Pondicherry), Bommayapalayam, Tamil Nadu 605101, India",
    "isBusiness": "true"
  },
  {
    "sellername": "Dayanand Sagar University",
    "sellerphone": "91 8049092933",
    "selleremail": "dean-engg@dsu.edu.in",
    "selleraddress": "Campus 1: Shavige Malleshwara Hills, Kumaraswamy Layout, Bengaluru - 560 111, Karnataka, India.",
    "isBusiness": "true"
  },
  {
    "sellername": "Varun Abodh",
    "sellerphone": "9880702765",
    "selleremail": "nil",
    "selleraddress": "RT Nagar Bangalore",
    "isBusiness": "false"
  },
  {
    "sellername": "KalaiCharan",
    "sellerphone": "9444353816",
    "selleremail": "nil",
    "selleraddress": "Chennai",
    "isBusiness": "false"
  },
  {
    "sellername": "Orko Roy",
    "sellerphone": "8850529827",
    "selleremail": "nil",
    "selleraddress": "Mumbai",
    "isBusiness": "false"
  },
  {
    "sellername": "Kabir Lamba",
    "sellerphone": "9339106292",
    "selleremail": "nil",
    "selleraddress": "Kolkata",
    "isBusiness": "false"
  },
  {
    "sellername": "Deepak Agarwal",
    "sellerphone": "9903379980",
    "selleremail": "nil",
    "selleraddress": "Kolkata",
    "isBusiness": "false"
  },
  {
    "sellername": "Debaleena Saha",
    "sellerphone": "8910314478",
    "selleremail": "nil",
    "selleraddress": "Kolkata",
    "isBusiness": "false"
  },
  {
    "sellername": "Swagato Chatterjee",
    "sellerphone": "9933323409",
    "selleremail": "nil",
    "selleraddress": "Kolkata",
    "isBusiness": "false"
  },
  {
    "sellername": "Pradyut",
    "sellerphone": "7003237104",
    "selleremail": "nil",
    "selleraddress": "Kolkata",
    "isBusiness": "false"
  },
  {
    "sellername": "Pabitra Sarkar",
    "sellerphone": "9883861234",
    "selleremail": "nil",
    "selleraddress": "Kolkata",
    "isBusiness": "false"
  },
  {
    "sellername": "Tapan Das",
    "sellerphone": "7003858311",
    "selleremail": "nil",
    "selleraddress": "Kolkata",
    "isBusiness": "false"
  },
  {
    "sellername": "Ayon Ghosh",
    "sellerphone": "8105411565",
    "selleremail": "nil",
    "selleraddress": "Kolkata",
    "isBusiness": "false"
  },
  {
    "sellername": "Koushik Majumder",
    "sellerphone": "9831642960",
    "selleremail": "nil",
    "selleraddress": "Kolkata",
    "isBusiness": "false"
  },
  {
    "sellername": "Mr Hasan",
    "sellerphone": "6297537003",
    "selleremail": "nil",
    "selleraddress": "Kolkata",
    "isBusiness": "false"
  },
  {
    "sellername": "Raj Rittik",
    "sellerphone": "8709787119",
    "selleremail": "nil",
    "selleraddress": "Kolkata",
    "isBusiness": "false"
  },
  {
    "sellername": "Velvan G",
    "sellerphone": "9500012229",
    "selleremail": "nil",
    "selleraddress": "Kolkata",
    "isBusiness": "false"
  },
  {
    "sellername": "Manoj Roy",
    "sellerphone": "9674794437",
    "selleremail": "nil",
    "selleraddress": "Kolkata",
    "isBusiness": "false"
  },
  {
    "sellername": "Rashid Ahmed",
    "sellerphone": "9062639634",
    "selleremail": "nil",
    "selleraddress": "Kolkata",
    "isBusiness": "false"
  },
  {
    "sellername": "Rahul Baid",
    "sellerphone": "6289068345",
    "selleremail": "nil",
    "selleraddress": "Kolkata",
    "isBusiness": "false"
  },
  {
    "sellername": "Tapash",
    "sellerphone": "9434010107",
    "selleremail": "nil",
    "selleraddress": "Kolkata",
    "isBusiness": "false"
  },
  {
    "sellername": "Kushal",
    "sellerphone": "8130754446",
    "selleremail": "nil",
    "selleraddress": "Kolkata",
    "isBusiness": "false"
  },
  {
    "sellername": "Sanjay Chaubey",
    "sellerphone": "9830330966",
    "selleremail": "nil",
    "selleraddress": "Kolkata",
    "isBusiness": "false"
  },
  {
    "sellername": "Arindam Biswas",
    "sellerphone": "9874920817",
    "selleremail": "nil",
    "selleraddress": "Kolkata",
    "isBusiness": "false"
  },
  {
    "sellername": "Vasu",
    "sellerphone": "9309813929\n",
    "selleremail": "nil",
    "selleraddress": "Pune",
    "isBusiness": "false"
  },
  {
    "sellername": "Kaivalya Jambhekar ",
    "sellerphone": "9545253737",
    "selleremail": "nil",
    "selleraddress": "Pune",
    "isBusiness": "false"
  },
  {
    "sellername": "Anukul",
    "sellerphone": "nil",
    "selleremail": "nil",
    "selleraddress": "Kolkata",
    "isBusiness": "false"
  },
  {
    "sellername": "R Basu",
    "sellerphone": "nil",
    "selleremail": "nil",
    "selleraddress": "Kolkata",
    "isBusiness": "false"
  },
  {
    "sellername": "NJ Overseas Private Limited",
    "sellerphone": "8046048247",
    "selleremail": "nil",
    "selleraddress": "Kolkata",
    "isBusiness": "false"
  },
  {
    "sellername": "Swami Textiles Private Limited",
    "sellerphone": "8048764142",
    "selleremail": "nil",
    "selleraddress": "D-336, Focal Point, Phase 8\nLudhiana - 141010, Punjab, India",
    "isBusiness": "true"
  },
  {
    "sellername": "Aarogyaa",
    "sellerphone": "8048600721",
    "selleremail": "nil",
    "selleraddress": "M-59, 1st Floor, G. S. Apartments, Plot No. 38, Sector 13, Rohini\nRohini\nNew Delhi - 110085, India",
    "isBusiness": "true"
  },
  {
    "sellername": "K2 International",
    "sellerphone": "8048808252",
    "selleremail": "nil",
    "selleraddress": "J1-02, First Floor, Kalkaji\nKalkaji\nDelhi - 110019, India",
    "isBusiness": "true"
  },
  {
    "sellername": "General Medical Inc ",
    "sellerphone": "8048703987",
    "selleremail": "nil",
    "selleraddress": "First Floor, A 38, Naraina Industrial Area, Phase 1\nNaraina\nNew Delhi - 110028, India",
    "isBusiness": "true"
  },
  {
    "sellername": "Rachna Art Prints Private Limited",
    "sellerphone": "8048974543",
    "selleremail": "nil",
    "selleraddress": "410/B, G.I.D.C, Pandesara\nUdhna\nSurat - 394221, Gujarat, India",
    "isBusiness": "true"
  },
  {
    "sellername": "Ansari Plastic Machinery ",
    "sellerphone": "8048621765",
    "selleremail": "nil",
    "selleraddress": "Sultanpur Majra\nNangloi\nNew Delhi - 110086, India",
    "isBusiness": "true"
  },
  {
    "sellername": "Flamingo Paper Packs",
    "sellerphone": "8048728887",
    "selleremail": "nil",
    "selleraddress": "Near Kavita Hospital, Haily Mandi\nGurgaon - 123504, Haryana, India",
    "isBusiness": "true"
  },
  {
    "sellername": "Curivo Health Care (Unit Of Indo Rama Engineers)",
    "sellerphone": "8048021673",
    "selleremail": "nil",
    "selleraddress": "E-5, 357, Aggarwal Metro Tower\nPitampura\nDelhi - 110034, India",
    "isBusiness": "true"
  },
  {
    "sellername": "Gaurav Associates",
    "sellerphone": "8048923281",
    "selleremail": "nil",
    "selleraddress": "F 6, Lotous Tower Top Floor\nLaxmi Nagar\nNew Delhi - 110092, India",
    "isBusiness": "true"
  },
  {
    "sellername": "Guruji Enterprises",
    "sellerphone": "7971381061",
    "selleremail": "nil",
    "selleraddress": "Khasra 28/30, Gali No 16\nLibaspur\nDelhi - 110042, India",
    "isBusiness": "true"
  },
  {
    "sellername": "Medipol Pharmaceutical India Private Limited",
    "sellerphone": "7971472971",
    "selleremail": "nil",
    "selleraddress": "128/5 Vishwas Nagar\nDelhi - 110032, India",
    "isBusiness": "true"
  },
  {
    "sellername": "AVIVO MEDIA PRIVATE LIMITED",
    "sellerphone": "7971273422",
    "selleremail": "nil",
    "selleraddress": "6-3-1104/1, Priya Apartment, Raj Bhavan Road,\nHyderabad- 500082, Telangana",
    "isBusiness": "true"
  },
  {
    "sellername": "FMT Infotech Private Limited",
    "sellerphone": "8048987779",
    "selleremail": "\nnil",
    "selleraddress": "2/5, Chittaranjan Colony\nBaghajatin Colony\nKolkata - 700092, West Bengal, India",
    "isBusiness": "true"
  },
  {
    "sellername": "Pcare (OPC) Private Limited",
    "sellerphone": "7971473434",
    "selleremail": "\nnil",
    "selleraddress": "No. 20, 7th Cross, Guddadahalli Hebbal, H Nagaraja Nilaya\nHebbal\nBengaluru - 560032, Karnataka, India",
    "isBusiness": "true"
  },
  {
    "sellername": "Vigilomed Pharmaceuticals",
    "sellerphone": "8037415733",
    "selleremail": "\nnil",
    "selleraddress": "No. 9, Shop No. 1, 1st Floor, 11th Main, MSR Layout, Hongasandra, Begur Road\nBengaluru - 560068, Karnataka, India",
    "isBusiness": "true"
  },
  {
    "sellername": "Pratibha Enterprises",
    "sellerphone": "8048001977",
    "selleremail": "nil",
    "selleraddress": "No. 203/WZ 97, Sunder Place\nPaschim Vihar\nDelhi - 110063, India",
    "isBusiness": "true"
  },
  {
    "sellername": "Nature Packaging",
    "sellerphone": "8048765445",
    "selleremail": "nil",
    "selleraddress": "C-79, Phase 1\nOkhla Industrial Area\nNew Delhi - 110020, India",
    "isBusiness": "true"
  },
  {
    "sellername": "General Medical Inc",
    "sellerphone": "8048703987",
    "selleremail": "nil",
    "selleraddress": "First Floor, A 38, Naraina Industrial Area, Phase 1\nNaraina\nNew Delhi - 110028, India",
    "isBusiness": "true"
  },
  {
    "sellername": "Mg Polyplast Industries Private Limited",
    "sellerphone": "8048709379",
    "selleremail": "nil",
    "selleraddress": "A-142,A-142A &E-130EPIP RIICO Industrial Area\nNeemrana - 301705, Alwar, Rajasthan, India",
    "isBusiness": "true"
  },
  {
    "sellername": "Rebuilt Prosthetics And Orthotics",
    "sellerphone": "8048718337",
    "selleremail": "nil",
    "selleraddress": "38/3, Double Storey, Ashok Nagar\nNew Delhi - 110018, India",
    "isBusiness": "true"
  },
  {
    "sellername": "City Advertising",
    "sellerphone": "8048762650",
    "selleremail": "nil",
    "selleraddress": "2166, Chuna Mandi, Main Road, Paharganj\nSahibabad\nDelhi - 110055, India",
    "isBusiness": "true"
  },
  {
    "sellername": "Indo Rama Engineers",
    "sellerphone": "8048713626",
    "selleremail": "nil",
    "selleraddress": "Plot No. 9, Village Rampur, Jattan\nPitampura\nKala Amb Industrial Area - 173030, Sirmaur, Himachal Pradesh, India",
    "isBusiness": "true"
  },
  {
    "sellername": "Mentok Healthcare Private Limited",
    "sellerphone": "8048939800",
    "selleremail": "nil",
    "selleraddress": "H-4, 3rd Floor, Parwana Road, Khureji Khas East\nJagat Puri\nNew Delhi - 110051, India",
    "isBusiness": "true"
  },
  {
    "sellername": "Patel Brothers",
    "sellerphone": "8048835342",
    "selleremail": "nil",
    "selleraddress": "No. 97, Nikas Chouraha\nPatel Nagar\nUjjain - 456001, Madhya Pradesh, India",
    "isBusiness": "true"
  },
  {
    "sellername": "RAJ Technoventures",
    "sellerphone": "8305765664",
    "selleremail": "nil",
    "selleraddress": "201 AB Road\nRau - 453331, Indore, Madhya Pradesh, India",
    "isBusiness": "true"
  },
  {
    "sellername": "Jajoo Surgicals Private Limited",
    "sellerphone": "8046051457",
    "selleremail": "nil",
    "selleraddress": "No. 413, Satguru Parinay, Besides Pakiza\nA. B. Road\nIndore - 452010, Madhya Pradesh, India",
    "isBusiness": "true"
  },
  {
    "sellername": "Emphatech Solutions Ltd",
    "sellerphone": "7999538756",
    "selleremail": "nil",
    "selleraddress": "929/1 E Industrial Area Number 1\nMAHAVIR NAGAR\nDewas - 455001, Madhya Pradesh, India",
    "isBusiness": "true"
  },
  {
    "sellername": "Harsh Pharmacy",
    "sellerphone": "7971473689",
    "selleremail": "nil",
    "selleraddress": "152 Sanghi Street Mhow\nMhow - 453441, Indore, Madhya Pradesh, India",
    "isBusiness": "true"
  },
  {
    "sellername": "Padma Industries",
    "sellerphone": "8042907177",
    "selleremail": "nil",
    "selleraddress": "107, Tirupati Industrial Estate, Subhash Nagar\nBhandup West\nMumbai - 400078, Maharashtra, India",
    "isBusiness": "true"
  },
  {
    "sellername": "Shree Shantinath Enterprises",
    "sellerphone": "8048077707",
    "selleremail": "nil",
    "selleraddress": "Gala No. 103, Newan Indl. Estate Bldg. No. 2\nVasai East\nMumbai - 400013, Maharashtra, India",
    "isBusiness": "true"
  },
  {
    "sellername": "Anosh Industries",
    "sellerphone": "8048722381",
    "selleremail": "nil",
    "selleraddress": "Office No. 7 & 8, Laxmi Complex\nChinchwad\nPune - 411062, Maharashtra, India",
    "isBusiness": "true"
  },
  {
    "sellername": "Chishtiya Poultry Services",
    "sellerphone": "8048762520",
    "selleremail": "nil",
    "selleraddress": "332, GIDC, Por, Ramangamdi\nVadodara - 391243, Gujarat, India",
    "isBusiness": "true"
  },
  {
    "sellername": "Cable House",
    "sellerphone": "8048080038",
    "selleremail": "nil",
    "selleraddress": "B/23, Parvati Chambers, Beside Alpna Cinema\nPratap Nagar\nVadodara - 390004, Gujarat, India",
    "isBusiness": "true"
  },
  {
    "sellername": "Armworth Engineering Private Limited",
    "sellerphone": "8046046541",
    "selleremail": "nil",
    "selleraddress": "J 70, MIDC\nBhosari\nPune - 411026, Maharashtra, India",
    "isBusiness": "true"
  },
  {
    "sellername": "AZ Infolink Private Limited",
    "sellerphone": "8048424642",
    "selleremail": "nil",
    "selleraddress": "UG Floor, 4/3, W. E. A., Karol Bagh\nKarol Bagh\nNew Delhi - 110005, India",
    "isBusiness": "true"
  },
  {
    "sellername": "PDM Sourcings",
    "sellerphone": "8049473304",
    "selleremail": "nil",
    "selleraddress": "Building No. 873/874, Jain Nagar\nSector -38, Rohini\nDelhi - 110081, India",
    "isBusiness": "true"
  },
  {
    "sellername": "Sachdeva Enterprises Tdr ",
    "sellerphone": "8048583837",
    "selleremail": "nil",
    "selleraddress": "No. 206, DSIDC Complex, Okhla Industrial Complex, Phase - 1\nOkhla Industrial Area\nDelhi - 110020, India",
    "isBusiness": "true"
  },
  {
    "sellername": "Kandru Eye Wear Private Limited",
    "sellerphone": "8048859643",
    "selleremail": "nil",
    "selleraddress": "UB-14, 3rd Floor, Bungalow Road, Jawahar Nagar\nKamla Nagar\nDelhi - 110007, India",
    "isBusiness": "true"
  },
  {
    "sellername": "Insha Enterprises",
    "sellerphone": "8048928239",
    "selleremail": "nil",
    "selleraddress": "1963, Ground Floor Gali\nChandni Chowk\nDelhi - 110006, India",
    "isBusiness": "true"
  },
  {
    "sellername": "R D Engineering Works",
    "sellerphone": "7971336270",
    "selleremail": "nil",
    "selleraddress": "Plot No. 110 B\nNear Ram Dharam Kata\nDelhi - 110035, India",
    "isBusiness": "true"
  },
  {
    "sellername": "Aura Credentials",
    "sellerphone": "8048739189",
    "selleremail": "nil",
    "selleraddress": "F- 26\nSouth Delhi\nNew Delhi - 110044, India",
    "isBusiness": "true"
  },
  {
    "sellername": "Toni Plastic Industries",
    "sellerphone": "8048762720",
    "selleremail": "nil",
    "selleraddress": "No. 10025, Gali No. 2, Multani Dhanda\nJhandewalan\nNew Delhi - 110055, India",
    "isBusiness": "true"
  },
  {
    "sellername": "Toplux Surgical Equip Company",
    "sellerphone": "8046067778",
    "selleremail": "nil",
    "selleraddress": "Plot No. 10, Vidya Vihar, Hastsal Industrial Area\nUttam Nagar\nNew Delhi - 110059, India",
    "isBusiness": "true"
  },
  {
    "sellername": "Sona Plastic Industries",
    "sellerphone": "8048079200",
    "selleremail": "nil",
    "selleraddress": "No. 24, Badli Industrial Area\nSamay Pur\nNew Delhi - 110042, India",
    "isBusiness": "true"
  },
  {
    "sellername": "Biomed Services",
    "sellerphone": "8047024777",
    "selleremail": "nil",
    "selleraddress": "Gali No. 1, Opposite NH-1, Near Samalkha City Mall, Samalkha\nSamalkha\nPanipat - 132101, Haryana, India",
    "isBusiness": "true"
  },
  {
    "sellername": "Korrida Medical Systems",
    "sellerphone": "8048946143",
    "selleremail": "nil",
    "selleraddress": "No. 376, Ranuja Dham Society, Bombay Market To Puna Gam Road\nUmarwada\nSurat - 395010, Gujarat, India",
    "isBusiness": "true"
  },
  {
    "sellername": "Ashok Enterprises",
    "sellerphone": "8048761946",
    "selleremail": "nil",
    "selleraddress": "No. 400, Padam Nagar\nSarai Rohilla\nNew Delhi - 110007, India",
    "isBusiness": "true"
  },
  {
    "sellername": "Healing Touch",
    "sellerphone": "8048709365",
    "selleremail": "nil",
    "selleraddress": "A-4, Mansa Ram Park\nUttam Nagar\nNew Delhi - 110017, India",
    "isBusiness": "true"
  },
  {
    "sellername": "Hi Tech Medi Systems",
    "sellerphone": "8048733511",
    "selleremail": "nil",
    "selleraddress": "RZF 1011 S/F,,,,Delhi,110077,RAJ NAGAR II\nPalam Colony\nNew Delhi - 110077, India",
    "isBusiness": "true"
  },
  {
    "sellername": "Magnum Marketing",
    "sellerphone": "8048022364",
    "selleremail": "nil",
    "selleraddress": "101, 102, Sethi Sadan, DDA Commercial Complex, Basai Darapur Road\nMoti Nagar\nNew Delhi - 110015, India",
    "isBusiness": "true"
  },
  {
    "sellername": "Shri Shyam Enterprises",
    "sellerphone": "8048882449",
    "selleremail": "nil",
    "selleraddress": "199 A, East Azad Nagar, Street No 10\nKrishna Nagar\nDelhi - 110051, India",
    "isBusiness": "true"
  },
  {
    "sellername": "Hans Raj & Sons",
    "sellerphone": "8048022772",
    "selleremail": "nil",
    "selleraddress": "226, Azad Market\nSadar Bazaar\nNew Delhi - 110006, India",
    "isBusiness": "true"
  },
  {
    "sellername": "Safewall",
    "sellerphone": "7971385138",
    "selleremail": "nil",
    "selleraddress": "Wz-1725, Multani Mohalla\nPitampura\nDelhi - 110034, India",
    "isBusiness": "true"
  },
  {
    "sellername": "Safety Industries",
    "sellerphone": "8048704046",
    "selleremail": "nil",
    "selleraddress": "Third Floor, 267, Phatak Karor, Ajmeri Gate\nOld Delhi\nDelhi - 110006, India",
    "isBusiness": "true"
  },
  {
    "sellername": "Shankar Metal",
    "sellerphone": "8048801881",
    "selleremail": "nil",
    "selleraddress": "4677-4678, Charkhawalan, Ballimaran\nChandni Chowk\nNew Delhi - 110006, India",
    "isBusiness": "true"
  },
  {
    "sellername": "Goyal Trading Company",
    "sellerphone": "8043051851",
    "selleremail": "nil",
    "selleraddress": "E-187, 1st Floor\nShastri Nagar\nNew Delhi - 110052, India",
    "isBusiness": "true"
  },
  {
    "sellername": "Bright Sales Corporation",
    "sellerphone": "8046051372",
    "selleremail": "nil",
    "selleraddress": "4078, 2nd Floor, Gali Kucha Dilwali Singh\nAjmeri Gate\nNew Delhi - 110006, India",
    "isBusiness": "true"
  },
  {
    "sellername": "Adarsh Safety Jacket Gramudyog",
    "sellerphone": "8048930143",
    "selleremail": "nil",
    "selleraddress": "G-1/58, Sonia Vihar Extn., 5th Pusta 25, Foota Road\nShahdara\nNew Delhi - 110094, India",
    "isBusiness": "true"
  },
  {
    "sellername": "Keyon Engineering Solutions Private Limited",
    "sellerphone": "7971383467",
    "selleremail": "nil",
    "selleraddress": "Plot No. E119 ,T /F KH 118/19, GALI NO 68\nuttam nagar\nDelhi - 110059, India",
    "isBusiness": "true"
  },
  {
    "sellername": "Shashi India Private Limited",
    "sellerphone": "8048762484",
    "selleremail": "nil",
    "selleraddress": "E-208, Flatted Factory Complex\nOkhla Industrial Estate Phase 3\nDelhi - 110020, India",
    "isBusiness": "true"
  },
  {
    "sellername": "Krishna Welding House",
    "sellerphone": "8037179813",
    "selleremail": "nil",
    "selleraddress": "No. 244/14- F, 1st Floor, Jawaharo Market, Phatak Karor\nChawri Bazar\nDelhi - 110006, India",
    "isBusiness": "true"
  },
  {
    "sellername": "Gaurav Associates",
    "sellerphone": "8048923281",
    "selleremail": "nil",
    "selleraddress": "F 6, Lotous Tower Top Floor\nLaxmi Nagar\nNew Delhi - 110092, India",
    "isBusiness": "true"
  },
  {
    "sellername": "Shree Siddhivinayak Technoplast",
    "sellerphone": "8042903070",
    "selleremail": "nil",
    "selleraddress": "42, Amarnath Estate, Naroda Road, Memco\nD Colony\nAhmedabad - 380025, Gujarat, India",
    "isBusiness": "true"
  },
  {
    "sellername": "Dhaara Healthcare",
    "sellerphone": "8046045245",
    "selleremail": "nil",
    "selleraddress": "29/7, 1933, Narain Bazar\nChandni Chowk\nDelhi - 110006, India",
    "isBusiness": "true"
  },
  {
    "sellername": "Mehul Industrial Solutions",
    "sellerphone": "7971474085",
    "selleremail": "nil",
    "selleraddress": "167, Ganga Niketan Colony, Ward No. 6\nDewas - 455001, Madhya Pradesh, India",
    "isBusiness": "true"
  },
  {
    "sellername": "Safety Zone",
    "sellerphone": "8048933908",
    "selleremail": "nil",
    "selleraddress": "FIRST FLOOR,3664-65, SHOP NO-103,GALI SHAHTARA,SHREENATH MARKET,BEHIND GB ROAD\nOld Delhi\nDelhi - 110006, India",
    "isBusiness": "true"
  },
  {
    "sellername": "Manu Shree Surgical Udyog",
    "sellerphone": "8048975768",
    "selleremail": "nil",
    "selleraddress": "C-19, West Patel Nagar\nChandni Chowk\nDelhi - 110008, India",
    "isBusiness": "true"
  },
  {
    "sellername": "Blue Sky System Private Limited",
    "sellerphone": "8048762038",
    "selleremail": "nil",
    "selleraddress": "A-53/2, Amritpuri A\nEast Of Kailash\nNew Delhi - 110065, India",
    "isBusiness": "true"
  },
  {
    "sellername": "Auctus Healthcare General Private Limited",
    "sellerphone": "8048620903",
    "selleremail": "nil",
    "selleraddress": "487/64, 1st Floor, National Market, Peeragarhi\nPaschim Vihar\nNew Delhi - 110087, India",
    "isBusiness": "true"
  },
  {
    "sellername": "Seahawk Enterprises",
    "sellerphone": "8048698130",
    "selleremail": "nil",
    "selleraddress": "No. 560 A, 3rd Floor, Lane 18, Okhla\nOkhla\nNew Delhi - 110025, India",
    "isBusiness": "true"
  },
  {
    "sellername": "Way2Dexterity",
    "sellerphone": "7971381578",
    "selleremail": "nil",
    "selleraddress": "B-11, FRONT PORSHAN SHANKER GARDEN WEST DELHI, 110018 DELHI\nSHANKER GARDEN\nDelhi - 110018, India",
    "isBusiness": "true"
  },
  {
    "sellername": "Dispowear Sterite Company",
    "sellerphone": "8048761951",
    "selleremail": "nil",
    "selleraddress": "Pocket D-2 A, Flat No. 51 C, Janakpuri\nChanakya Place\nNew Delhi - 110058, India",
    "isBusiness": "true"
  },
  {
    "sellername": "Essone Global",
    "sellerphone": "7971373527",
    "selleremail": "nil",
    "selleraddress": "M-117, Sector 1\nDSIDC Industrial Area\nDelhi - 110039, India",
    "isBusiness": "true"
  },
  {
    "sellername": "Vivan Surgical Export And Import",
    "sellerphone": "8048698934",
    "selleremail": "nil",
    "selleraddress": "191, Vardhaman Society, Near Shyam Dham Chowk\nNana Varachha\nSurat - 395006, Gujarat, India",
    "isBusiness": "true"
  },
  {
    "sellername": "Fab Industries",
    "sellerphone": "8048622659",
    "selleremail": "nil",
    "selleraddress": "No. 185/186, 2nd Floor, Ashoka Shopping Centre\nFort\nMumbai - 400001, Maharashtra, India",
    "isBusiness": "true"
  },
  {
    "sellername": "Revital Cryogenic & Biotech Systems",
    "sellerphone": "8037429801",
    "selleremail": "nil",
    "selleraddress": "Sanganer\nJaipur - 302039, Rajasthan, India",
    "isBusiness": "true"
  },
  {
    "sellername": "Wearhouse Elite Clothing",
    "sellerphone": "8048004143",
    "selleremail": "nil",
    "selleraddress": "Basement, 1 & 2, Laxmi Sagar Apartment, Shivmandir Road\nKher\nMumbai - 421501, Maharashtra, India",
    "isBusiness": "true"
  },
  {
    "sellername": "Bhairavi Surgicals & Distributors",
    "sellerphone": "8045317685",
    "selleremail": "nil",
    "selleraddress": "615, Shreeman Co Op Housing Society\nNarayan Peth\nPune - 411030, Maharashtra, India",
    "isBusiness": "true"
  },
  {
    "sellername": "Mehul Industrial Solutions",
    "sellerphone": "7971474085",
    "selleremail": "nil",
    "selleraddress": "167, Ganga Niketan Colony, Ward No. 6\nDewas - 455001, Madhya Pradesh, India",
    "isBusiness": "true"
  },
  {
    "sellername": "Happy Home Textile LLP",
    "sellerphone": "8048615637",
    "selleremail": "nil",
    "selleraddress": "No. 315, Kewal Industrial Estate\nLower Parel\nMumbai - 400013, Maharashtra, India",
    "isBusiness": "true"
  },
  {
    "sellername": "Burhani Furnishings",
    "sellerphone": "8046067177",
    "selleremail": "nil",
    "selleraddress": "No. 60 / 64, Shivdas Chapsi Marg, Salim Mansion\nMazgaon\nMumbai - 400010, Maharashtra, India",
    "isBusiness": "true"
  },
  {
    "sellername": "The Passport Cover",
    "sellerphone": "8048875276",
    "selleremail": "nil",
    "selleraddress": "Building No.1,B-1,Killedar Apartments\nJogeshwari west\nMumbai - 400102, Maharashtra, India",
    "isBusiness": "true"
  },
  {
    "sellername": "Style Us Brands Private Limited",
    "sellerphone": "8048076776",
    "selleremail": "nil",
    "selleraddress": "A 19 F, Malad Industrial Estate, Kanchpada\nMalad West\nMumbai - 400064, Maharashtra, India",
    "isBusiness": "true"
  },
  {
    "sellername": "Jai Hanuman Printers",
    "sellerphone": "8048797615",
    "selleremail": "nil",
    "selleraddress": "X-119, First Floor, Tagore Gali\nGandhi Nagar\nDelhi - 110031, India",
    "isBusiness": "true"
  },
  {
    "sellername": "Rege Imaging & Cine Films Private Limited",
    "sellerphone": "8048603359",
    "selleremail": "nil",
    "selleraddress": "310, 3rd Floor, Deep Shikha\nRajendra Place\nNew Delhi - 110008, India",
    "isBusiness": "true"
  },
  {
    "sellername": "Nikhil Trader",
    "sellerphone": "8046069007",
    "selleremail": "nil",
    "selleraddress": "Rz988/a Basement,Palam Colony\nRaj Nagar\nDelhi - 110077, India",
    "isBusiness": "true"
  },
  {
    "sellername": "Manu Shree Surgical Udyog",
    "sellerphone": "8048975768",
    "selleremail": "nil",
    "selleraddress": "C-19, West Patel Nagar\nChandni Chowk\nDelhi - 110008, India",
    "isBusiness": "true"
  },
  {
    "sellername": "Essone Global",
    "sellerphone": "7971373527",
    "selleremail": "nil",
    "selleraddress": "M-117, Sector 1\nDSIDC Industrial Area\nDelhi - 110039, India",
    "isBusiness": "true"
  },
  {
    "sellername": "Dhaara Healthcare",
    "sellerphone": "8046045245",
    "selleremail": "nil",
    "selleraddress": "29/7, 1933, Narain Bazar\nChandni Chowk\nDelhi - 110006, India",
    "isBusiness": "true"
  },
  {
    "sellername": "Shiva Industries",
    "sellerphone": "8048762462",
    "selleremail": "nil",
    "selleraddress": "B-7, Vardhman City II Plaza, Asaf Ali Road\nOld Delhi\nNew Delhi - 110002, India",
    "isBusiness": "true"
  },
  {
    "sellername": "Genuine Enterprises",
    "sellerphone": "8043258842",
    "selleremail": "nil",
    "selleraddress": "652 B, Street No. 7, Govind Puri, Kalka Ji\nOkhla Industrial Area\nNew Delhi - 110019, India",
    "isBusiness": "true"
  },
  {
    "sellername": "Shivam Traders",
    "sellerphone": "9990528820",
    "selleremail": "nil",
    "selleraddress": "Janak Puri\nJanak puri\nDelhi - 110058, India",
    "isBusiness": "true"
  },
  {
    "sellername": "Dispowear Sterite Company",
    "sellerphone": "8048761951",
    "selleremail": "nil",
    "selleraddress": "Pocket D-2 A, Flat No. 51 C, Janakpuri\nChanakya Place\nNew Delhi - 110058, India",
    "isBusiness": "true"
  },
  {
    "sellername": "Manu Shree Surgical Udyog",
    "sellerphone": "8048975768",
    "selleremail": "nil",
    "selleraddress": "C-19, West Patel Nagar\nChandni Chowk\nDelhi - 110008, India",
    "isBusiness": "true"
  },
  {
    "sellername": "Flickpacks Industries",
    "sellerphone": "7971374378",
    "selleremail": "nil",
    "selleraddress": "B-542\nNew Friends Colony\nNew Delhi - 110025, India",
    "isBusiness": "true"
  },
  {
    "sellername": "Orson Media",
    "sellerphone": "8046040560",
    "selleremail": "nil",
    "selleraddress": "L8/281A, Gurdev Nagar\nTarn Taran Road\nAmritsar - 143001, Punjab, India",
    "isBusiness": "true"
  },
  {
    "sellername": "Viva Composite Panel Private Limited",
    "sellerphone": "8042909146",
    "selleremail": "nil",
    "selleraddress": "Unit 7, New Tejpal Industrial Estate, Kurla Road\nSaki Naka\nMumbai - 400072, Maharashtra, India",
    "isBusiness": "true"
  },
  {
    "sellername": "M.S. Industries",
    "sellerphone": "8048411698",
    "selleremail": "nil",
    "selleraddress": "Plot No. 39, Shanti Kunj Colony, Kaimri Road\nIndustrial Area\nHisar - 125001, Haryana, India",
    "isBusiness": "true"
  },
  {
    "sellername": "V. P. Oswal Hosiery Factory",
    "sellerphone": "8045323386",
    "selleremail": "nil",
    "selleraddress": "Grewal Colony, Noorwala Road\nBasant Vihar Extension\nLudhiana - 141001, Punjab, India",
    "isBusiness": "true"
  },
  {
    "sellername": "Wildcraft India Pvt Ltd",
    "sellerphone": "7971473253",
    "selleremail": "nil",
    "selleraddress": "No.15/16 1st Floor, 15th Cross Road, Outer Ring Road, Next To Starbucks\nJP Nagar\nBengaluru - 560078, Karnataka, India",
    "isBusiness": "true"
  },
  {
    "sellername": "Seven Rocks International",
    "sellerphone": "8048881989",
    "selleremail": "nil",
    "selleraddress": "207-A, Industrial Area-A, 1\nJanakpuri\nLudhiana - 141003, Punjab, India",
    "isBusiness": "true"
  },
  {
    "sellername": "J K Fab Crafts",
    "sellerphone": "8048605796",
    "selleremail": "nil",
    "selleraddress": "Umaid Bhawan, CF 43\nBaldev Nagar\nBarmer - 344001, Rajasthan, India",
    "isBusiness": "true"
  },
  {
    "sellername": "JMD Helmets Private Limited",
    "sellerphone": "8048745942",
    "selleremail": "nil",
    "selleraddress": "893, Swarn Park\nMundka Industrial Area\nNew Delhi - 110041, India",
    "isBusiness": "true"
  },
  {
    "sellername": "R.S. Enterprise",
    "sellerphone": "8048614945",
    "selleremail": "nil",
    "selleraddress": "Rakhit More, Garia\nKamdahari\nKolkata - 700154, West Bengal, India",
    "isBusiness": "true"
  },
  {
    "sellername": "Apex Homeneeds Private Limited",
    "sellerphone": "8048765473",
    "selleremail": "nil",
    "selleraddress": "G-1875, Road K-3, Kishan Gate Road, Lodhika\nMetoda\nRajkot - 360021, Gujarat, India",
    "isBusiness": "true"
  },
  {
    "sellername": "Motivate Box",
    "sellerphone": "8048949214",
    "selleremail": "nil",
    "selleraddress": "161/A, Balaram Dey Street, Ground Floor\nKolkata - 700006, West Bengal, India",
    "isBusiness": "true"
  },
  {
    "sellername": "Brand Tex Exports",
    "sellerphone": "8048736837",
    "selleremail": "nil",
    "selleraddress": "340, Rajdanga Main Road\nEast Kolkata Township\nKolkata - 700107, West Bengal, India",
    "isBusiness": "true"
  }
]
